Building Intuition around Portfolio Mathematics | (a)Typical Quant
…
# Load the required library.
library(tidyverse)

Now that we have all of the required tools in place, we need to prepare the edhec data for use in a tidy workflow.

The following step returns a “long” version of edhec where we have columns for Date, Asset, and Return. This is the data structure we will use to make our tidy comoment calculations.

edhec_tidy <- edhec %>% 
  as_tibble() %>% # Start by making a tibble from the xts object
  mutate(Date = index(edhec)) %>% # Create a Date column from the xts index
  gather(Asset, Return, -Date) # gather to make the wide edhec data long
edhec_tidy

## # A tibble: 1,976 x 3
##    Date       Asset                 Return
##    <date>     <chr>                  <dbl>
##  1 1997-01-31 Convertible Arbitrage 0.0119
##  2 1997-02-28 Convertible Arbitrage 0.0123
##  3 1997-03-31 Convertible Arbitrage 0.0078
##  4 1997-04-30 Convertible Arbitrage 0.0086
##  5 1997-05-31 Convertible Arbitrage 0.0156
##  6 1997-06-30 Convertible Arbitrage 0.0212
##  7 1997-07-31 Convertible Arbitrage 0.0193
##  8 1997-08-31 Convertible Arbitrage 0.0134
##  9 1997-09-30 Convertible Arbitrage 0.0122
## 10 1997-10-31 Convertible Arbitrage 0.01  
## # ... with 1,966 more rows
…
The formula for the covariance of any two random variables \(i\) and \(j\) is given to be:

\[CoV(i, j) = E[(i - \overline{i})(j - \overline{j})]\]

Said in English, for each pairwise-complete observation (in this case, every date for an asset pair), we need to multiply the deviation of return for each asset \(i\) from its mean by the deviation of each asset \(j\) from its mean. We then take the expected value (average) of those resulting products to arrive at the covariance of each asset pair.

To perform these steps using the approach described above, begin by selecting the required columns from the data and grouping by asset.

edhec_tidy_1 <- edhec_tidy %>% 
    select(Date, Asset, Return) %>% 
    group_by(Asset)
edhec_tidy_1

## # A tibble: 1,976 x 3
## # Groups:   Asset [13]
##    Date       Asset                 Return
##    <date>     <chr>                  <dbl>
##  1 1997-01-31 Convertible Arbitrage 0.0119
##  2 1997-02-28 Convertible Arbitrage 0.0123
##  3 1997-03-31 Convertible Arbitrage 0.0078
##  4 1997-04-30 Convertible Arbitrage 0.0086
##  5 1997-05-31 Convertible Arbitrage 0.0156
##  6 1997-06-30 Convertible Arbitrage 0.0212
##  7 1997-07-31 Convertible Arbitrage 0.0193
##  8 1997-08-31 Convertible Arbitrage 0.0134
##  9 1997-09-30 Convertible Arbitrage 0.0122
## 10 1997-10-31 Convertible Arbitrage 0.01  
## # ... with 1,966 more rows

Then mutate to create a column for the difference between the point value of return and the mean value of return for each aset. Drop the Return column as we no longer require it.

edhec_tidy_2 <- edhec_tidy_1 %>% 
  mutate(Point_Deviation = Return - mean(Return)) %>% 
  select(-Return)
edhec_tidy_2

## # A tibble: 1,976 x 3
## # Groups:   Asset [13]
##    Date       Asset                 Point_Deviation
##    <date>     <chr>                           <dbl>
##  1 1997-01-31 Convertible Arbitrage         0.00549
##  2 1997-02-28 Convertible Arbitrage         0.00589
##  3 1997-03-31 Convertible Arbitrage         0.00139
##  4 1997-04-30 Convertible Arbitrage         0.00219
##  5 1997-05-31 Convertible Arbitrage         0.00919
##  6 1997-06-30 Convertible Arbitrage         0.0148 
##  7 1997-07-31 Convertible Arbitrage         0.0129 
##  8 1997-08-31 Convertible Arbitrage         0.00699
##  9 1997-09-30 Convertible Arbitrage         0.00579
## 10 1997-10-31 Convertible Arbitrage         0.00359
## # ... with 1,966 more rows

Now is when the magic starts to happen. Create a copy of the Asset column and save it as Asset.i. This identifies which Asset is the \(i\) element. Then we perform the first data reshaping step to widen the data.

edhec_tidy_3 <- edhec_tidy_2 %>% 
  mutate(Asset.i = Asset
         , Point_Deviation.i = Point_Deviation
         ) %>% 
  spread(Asset, Point_Deviation) 
edhec_tidy_3

## # A tibble: 1,976 x 16
##    Date       Asset.i Point_Deviation~ `Convertible Ar~ `CTA Global`
##    <date>     <chr>              <dbl>            <dbl>        <dbl>
##  1 1997-01-31 Conver~          0.00549          0.00549      NA     
##  2 1997-01-31 CTA Gl~          0.0328          NA             0.0328
##  3 1997-01-31 Distre~          0.00985         NA            NA     
##  4 1997-01-31 Emergi~          0.0709          NA            NA     
##  5 1997-01-31 Equity~          0.0129          NA            NA     
##  6 1997-01-31 Event ~          0.0137          NA            NA     
##  7 1997-01-31 Fixed ~          0.0149          NA            NA     
##  8 1997-01-31 Funds ~          0.0258          NA            NA     
##  9 1997-01-31 Global~          0.0496          NA            NA     
## 10 1997-01-31 Long/S~          0.0203          NA            NA     
## # ... with 1,966 more rows, and 11 more variables: `Distressed
## #   Securities` <dbl>, `Emerging Markets` <dbl>, `Equity Market
## #   Neutral` <dbl>, `Event Driven` <dbl>, `Fixed Income Arbitrage` <dbl>,
## #   `Funds of Funds` <dbl>, `Global Macro` <dbl>, `Long/Short
## #   Equity` <dbl>, `Merger Arbitrage` <dbl>, `Relative Value` <dbl>,
## #   `Short Selling` <dbl>

Doing this created a lot of missing values which we will use to create a longer tibble that has rows for each combination of date and pair of assets \(i\) and \(j\). This is done using gather().

edhec_tidy_4 <- edhec_tidy_3 %>% 
  gather(Asset.j, Point_Deviation.j, -Date
         , -Asset.i, -Point_Deviation.i
         ) 
edhec_tidy_4

## # A tibble: 25,688 x 5
##    Date       Asset.i       Point_Deviation.i Asset.j      Point_Deviation~
##    <date>     <chr>                     <dbl> <chr>                   <dbl>
##  1 1997-01-31 Convertible ~           0.00549 Convertible~          0.00549
##  2 1997-01-31 CTA Global              0.0328  Convertible~         NA      
##  3 1997-01-31 Distressed S~           0.00985 Convertible~         NA      
##  4 1997-01-31 Emerging Mar~           0.0709  Convertible~         NA      
##  5 1997-01-31 Equity Marke~           0.0129  Convertible~         NA      
##  6 1997-01-31 Event Driven            0.0137  Convertible~         NA      
##  7 1997-01-31 Fixed Income~           0.0149  Convertible~         NA      
##  8 1997-01-31 Funds of Fun~           0.0258  Convertible~         NA      
##  9 1997-01-31 Global Macro            0.0496  Convertible~         NA      
## 10 1997-01-31 Long/Short E~           0.0203  Convertible~         NA      
## # ... with 25,678 more rows

The result is a longer tibble but where many of the values are missing. Those need to be filled in with the only relevant data point for each combination of Date and Asset.j. I chose to use max() to do this.

edhec_tidy_5 <- edhec_tidy_4 %>% 
  group_by(Date, Asset.j) %>% 
    mutate(Point_Deviation.j = max(Point_Deviation.j, na.rm = TRUE)
           , Joint_Point_Deviation = Point_Deviation.i * Point_Deviation.j
           ) 
edhec_tidy_5

## # A tibble: 25,688 x 6
## # Groups:   Date, Asset.j [1,976]
##    Date       Asset.i Point_Deviation~ Asset.j Point_Deviation~
##    <date>     <chr>              <dbl> <chr>              <dbl>
##  1 1997-01-31 Conver~          0.00549 Conver~          0.00549
##  2 1997-01-31 CTA Gl~          0.0328  Conver~          0.00549
##  3 1997-01-31 Distre~          0.00985 Conver~          0.00549
##  4 1997-01-31 Emergi~          0.0709  Conver~          0.00549
##  5 1997-01-31 Equity~          0.0129  Conver~          0.00549
##  6 1997-01-31 Event ~          0.0137  Conver~          0.00549
##  7 1997-01-31 Fixed ~          0.0149  Conver~          0.00549
##  8 1997-01-31 Funds ~          0.0258  Conver~          0.00549
##  9 1997-01-31 Global~          0.0496  Conver~          0.00549
## 10 1997-01-31 Long/S~          0.0203  Conver~          0.00549
## # ... with 25,678 more rows, and 1 more variable:
## #   Joint_Point_Deviation <dbl>

Finally, we group by Asset.i and Asset.j such that we return a summary value for each pair of \(i\) and \(j\) which is the mean (in this case adjusted for \(n-1\) observations) of the “joint point deviation”.

edhec_covar_tidy <- edhec_tidy_5 %>% 
    group_by(Asset.i, Asset.j) %>% 
    summarise(CoVar = sum(Joint_Point_Deviation) / (length(Joint_Point_Deviation) - 1)) %>% 
    ungroup()
edhec_covar_tidy

## # A tibble: 169 x 3
##    Asset.i               Asset.j                     CoVar
##    <chr>                 <chr>                       <dbl>
##  1 Convertible Arbitrage Convertible Arbitrage   0.000402 
##  2 Convertible Arbitrage CTA Global             -0.0000344
##  3 Convertible Arbitrage Distressed Securities   0.000262 
##  4 Convertible Arbitrage Emerging Markets        0.000429 
##  5 Convertible Arbitrage Equity Market Neutral   0.0000892
##  6 Convertible Arbitrage Event Driven            0.000259 
##  7 Convertible Arbitrage Fixed Income Arbitrage  0.000220 
##  8 Convertible Arbitrage Funds of Funds          0.000227 
##  9 Convertible Arbitrage Global Macro            0.000129 
## 10 Convertible Arbitrage Long/Short Equity       0.000250 
## # ... with 159 more rows
…
}

Even Higher Order Moments?

Absolutely. Simply continue the pattern of copying the name and Point Deviation for element i to a new colum, adding a data widening and lengthening step, filling in the missing values, and adjusting the “Joint_Point_Deviation” to incorporate the new asset.

Comparison of Results

Covariance

edhec_covar_tidy <- edhec_tidy %>% 
  covariance_tbl()
edhec_covar_tidy

## # A tibble: 169 x 3
##    Asset.i               Asset.j                     CoVar
##    <chr>                 <chr>                       <dbl>
##  1 Convertible Arbitrage Convertible Arbitrage   0.000402 
##  2 Convertible Arbitrage CTA Global             -0.0000344
##  3 Convertible Arbitrage Distressed Securities   0.000262 
##  4 Convertible Arbitrage Emerging Markets        0.000429 
##  5 Convertible Arbitrage Equity Market Neutral   0.0000892
##  6 Convertible Arbitrage Event Driven            0.000259 
##  7 Convertible Arbitrage Fixed Income Arbitrage  0.000220 
##  8 Convertible Arbitrage Funds of Funds          0.000227 
##  9 Convertible Arbitrage Global Macro            0.000129 
## 10 Convertible Arbitrage Long/Short Equity       0.000250 
## # ... with 159 more rows
…
Coskewness

edhec_csk_tidy <- edhec_tidy %>% 
  coskewness_tbl()
edhec_csk_tidy

## # A tibble: 2,197 x 4
##    Asset.i              Asset.j             Asset.k                  CoSkew
##    <chr>                <chr>               <chr>                     <dbl>
##  1 Convertible Arbitra~ Convertible Arbitr~ Convertible Arbitra~   -2.14e-5
##  2 Convertible Arbitra~ Convertible Arbitr~ CTA Global              2.49e-6
##  3 Convertible Arbitra~ Convertible Arbitr~ Distressed Securiti~   -1.42e-5
##  4 Convertible Arbitra~ Convertible Arbitr~ Emerging Markets       -2.42e-5
##  5 Convertible Arbitra~ Convertible Arbitr~ Equity Market Neutr~   -4.62e-6
##  6 Convertible Arbitra~ Convertible Arbitr~ Event Driven           -1.34e-5
##  7 Convertible Arbitra~ Convertible Arbitr~ Fixed Income Arbitr~   -1.43e-5
##  8 Convertible Arbitra~ Convertible Arbitr~ Funds of Funds         -1.33e-5
##  9 Convertible Arbitra~ Convertible Arbitr~ Global Macro           -5.95e-6
## 10 Convertible Arbitra~ Convertible Arbitr~ Long/Short Equity      -1.36e-5
## # ... with 2,187 more rows
…
